<?xml version="1.0" encoding="UTF-8" standalone="no"?>
<!-- Created with Inkscape (http://www.inkscape.org/) -->
<svg id="svg3077" xmlns:rdf="http://www.w3.org/1999/02/22-rdf-syntax-ns#" xmlns="http://www.w3.org/2000/svg" xml:space="preserve" height="100%" width="100%" version="1.1" xmlns:cc="http://creativecommons.org/ns#" xmlns:dc="http://purl.org/dc/elements/1.1/" viewBox="0 0 64 64"><metadata id="metadata3001"><rdf:RDF><cc:Work rdf:about=""><dc:format>image/svg+xml</dc:format><dc:type rdf:resource="http://purl.org/dc/dcmitype/StillImage"/><dc:title/></cc:Work></rdf:RDF></metadata>
<path id="path3111" style="baseline-shift:baseline;block-progression:tb;color:#000000;direction:ltr;text-indent:0;text-align:start;enable-background:accumulate;text-transform:none;" fill="#000" d="M50.749,47.364c11.868-0.194,16.557-17.077,3.016-22.344,0.926-8.769-6.711-18.541-17.778-17.998-5.688,0.067-13.42,4.2254-15.658,13.08-7.723-1.595-12.235,4.741-12.017,10.204-9.4362,3.9346-7.8293,16.452,1.7367,16.956,4.296,0.22613,40.7,0.10237,40.7,0.10237zm-40.247-1.857c-6.6923-0.814-8.0145-6.961-5.4393-10.586,3.101-4.3651,11.715-3.9106,12.142,3.8842l1.8518-0.02099c-0.327-5.254-3.662-8.448-8.768-8.505-0.6194-10.63,14.993-11.533,15.541-0.667l1.8809-0.11086c-0.39754-4.8932-2.6146-7.1726-5.4965-8.665,0.85256-4.9668,5.1793-11.384,14.175-11.897,10.886-0.04299,16.278,8.9901,15.522,16.852-0.3525,3.6651-2.9153,8.8779-8.0289,13.012l2.2575,0.01999c4.3796-3.2166,6.9607-8.5992,7.4566-11.953,11.4,4.9459,6.495,18.615-3.0227,18.619z"/>
<path id="path3814" fill="#000" d="m7,49.184,0,6.683,0.84767,0,0-5.5651,2.2686,5.5651,0.33579,0,2.2441-5.5979,0,5.5897,0.86404,0,0-6.6667-1.2367,0-2.0557,5.1515l-2.0876-5.156z"/><path id="path3856" style="baseline-shift:baseline;block-progression:tb;color:#000000;direction:ltr;text-indent:0;text-align:start;enable-background:accumulate;text-transform:none;" fill="#000" d="m17.618,50.265c-3.8329,0-3.775,5.7125,0,5.7125s3.8329-5.7125,0-5.7125zm0,0.68386c2.6984,0,2.7428,4.3713,0,4.3448-2.7428-0.02653-2.6984-4.3448,0-4.3448z"/><path id="path3862" fill="#000" d="m33.568,54.678-0.69354-0.39673s-0.55191,0.96825-1.8594,0.96825c-3.4646,0-3.3633-5.4182,0.01736-5.4264,1.2065-0.0029,1.8706,0.97871,1.8706,0.97871l0.66283-0.39717s-0.83476-1.3102-2.4785-1.3102c-4.6699,0-4.5917,6.9059-0.02467,6.9059,1.6459,0,2.5053-1.3224,2.5053-1.3224z"/><path id="path3864" fill="#000" d="m35.403,50.359-0.78624,0,0,5.5078,3.4726,0,0-0.68796-2.7068,0z"/><path id="path3866" fill="#000" d="m46.603,50.372,0,0,0-0.01639-0.77805,0-0.0057,3.5583c-0.0045,2.779,4.7133,2.7507,4.7178,0l0.0057-3.546h-0.78253v3.467c0,1.9876-3.1249,2.0015-3.1368,0z"/><path id="path3856-7" style="baseline-shift:baseline;block-progression:tb;color:#000000;direction:ltr;text-indent:0;text-align:start;enable-background:accumulate;text-transform:none;" fill="#000" d="m23.848,50.378-2.1692-0.0026,0.0085,5.4838,2.046,0.0045c3.947,0.0086,3.7271-5.4813,0.11466-5.4857zm-0.1638,0.68751c2.8512,0.01896,2.8663,4.121-0.02457,4.127l-1.1647,0.0024-0.0186-4.1375z"/><path id="path3856-4" style="baseline-shift:baseline;block-progression:tb;color:#000000;direction:ltr;text-indent:0;text-align:start;enable-background:accumulate;text-transform:none;" fill="#000" d="m41.754,50.275c-3.8329,0-3.775,5.7125,0,5.7125,3.7749,0,3.8329-5.7125,0-5.7125zm0,0.68386c2.6984,0,2.7428,4.3713,0,4.3448-2.7428-0.02653-2.6984-4.3448,0-4.3448z"/><path id="path3856-7-0" style="baseline-shift:baseline;block-progression:tb;color:#000000;direction:ltr;text-indent:0;text-align:start;enable-background:accumulate;text-transform:none;" fill="#000" d="m54.222,50.37-2.1692-0.0026,0.0085,5.4838,2.046,0.0045c3.947,0.0086,3.7271-5.4813,0.11466-5.4857zm-0.1638,0.68751c2.8512,0.01897,2.8663,4.121-0.02457,4.127l-1.1647,0.0024-0.0186-4.1375z"/></svg>
